412,99,82,528,22,163,675,651,627,674,697,76,79,890,359,0,635,29,39,100,831,833,732,373,780,266,489,820,727,227,46,0,664,803,636,808,837,0,0,80,807,759,179,387,0,87,0,36,542,0,0,37,76,576,550,273,90,297,66,809,91,0,0,0,0,422,644,621,10,0,361,62,0,163,131,388,0,375,376,0,0,0,0,845,132,752,824,0,680,0,0,83,809,81,158,691,71,672,885,654,898,0,606,190,64,828,0,0,0,97,0,739,84,0,660,0,0,53,582,0,104,393,97,0,610,0,0,80,0,543,0,0,0,0,68,0,0,302,802,300,68,0,0,0,0,755,895,627,596,7,0,0,36,703,149,387,7,0,234,166,0,884,0,0,0,0,0,0,87,725,0,0,0,0,0,0,397,0,355,0,0,0,21,0,0,0,0,0,0,0,200,0,0,0,0,0,0,0,347,0,96,33,374,0,0,17,0,0,0,0,90,0,508,53,172,65,873,0,0,0,365,0,0,0,84,0,624,0,0,0,0,161,0,0,0,0,0,0,0,149,371,0,0,898,0,0,795,10,346,0,0,439,0,207,39,0,64,320,683,635,0,0,370,620,0,369,160,0,0,824,184,104,102,0,0,737,0,778,20,745,524,168,894,0,0,0,801,0,576,642,726,207,276,0,0,0,0,0,0,0,0,178,440,0,0,556,0,0,0,371,76,0,0,77,0,88,6,0,193,0,0,0,211,0,212,719,20,0,0,0,342,0,381,410,624,346,0,0,0,14,0,0,0,0,0,0,502,0,0,0,0,0,0,0,0,0,0,805,0,455,122,85,885,0,233,0,0,0,0,0,0,17,0,725,0,0,872,45,488,24,894,0,84,0,0,0,586,0,0,90,339,0,0,0,552,0,542,0,471,0,0,0,886,0,0,0,0,58,746,614,0,0,0,0,0,0,0,0,0,0,0,320,0,0,479,0,0,332,0,639,0,0,0
0.0040739,-38.668,-17.632,-0.043609,18.029,0.23493,0.085675,-0.098359,-0.086672,-1.1068,-0.022981,-18.497,-13.814,-2.4011,-0.023036,0,-0.30194,9.0107,-6.9302,-27.528,-8.6172,6.0967,-0.017555,0.03286,0.026852,0.015952,0.12852,22.733,-0.096356,0.034071,18.673,0,0.16901,-1.5678,0.13706,-77.064,-39.557,0,0,-11.279,-34.425,0.025268,-0.079429,0.13554,0,-3.0171,0,37.336,0.077074,0,0,10.027,-16.927,0.09601,-0.024549,0.059819,-20.134,0.11125,6.1952,1.4652,-6.0669,0,0,0,0,-0.094776,0.034929,-0.21873,-0.38663,0,0.035411,13.162,0,-0.18127,0.15502,-0.01351,0,0.14933,-0.16294,0,0,0,0,0.14349,0.37122,-0.013092,6.9644,0,0.0447,0,0,3.8095,4.0223,-5.5083,-0.28594,0.094638,-5.4455,-0.4401,17.267,-0.071183,-8.7544,0,0.066685,0.044033,5.3479,-5.7949,0,0,0,12.885,0,-0.03661,-4.985,0,-0.01051,0,0,-20.051,-0.040606,0,-0.042768,-0.064188,7.9201,0,0.034509,0,0,-14.324,0,-0.017687,0,0,0,0,7.8682,0,0,-0.041125,33.792,-0.02546,-1.7351,0,0,0,0,-0.034517,8.7872,0.025144,0.02654,-15.345,0,0,18.275,0.056798,1.0722,0.055949,-16.432,0,0.018051,0.34903,0,-9.5619,0,0,0,0,0,0,16.456,-0.19611,0,0,0,0,0,0,-0.01623,0,-0.15229,0,0,0,4.9634,0,0,0,0,0,0,0,-0.056183,0,0,0,0,0,0,0,0.0064755,0,8.9754,3.0241,0.071371,0,0,40.467,0,0,0,0,-22.587,0,0.12466,-31.336,-0.37776,-17.9,91.358,0,0,0,0.12783,0,0,0,5.0451,0,0.020974,0,0,0,0,-0.48092,0,0,0,0,0,0,0,0.81721,-0.05245,0,0,18.803,0,0,0.046594,-4.7343,0.20202,0,0,0.010014,0,0.25143,-20.954,0,-7.1316,-0.018805,0.091708,-0.32326,0,0,-0.051608,0.0018389,0,-0.039961,-0.37344,0,0,5.822,-0.016774,-0.014343,-0.82411,0,0,-0.010993,0,0.0035729,-43.491,0.038455,0.10623,0.32842,14.732,0,0,0,-10.743,0,0.025206,-0.76474,-0.048551,0.2204,0.17174,0,0,0,0,0,0,0,0,0.26781,-0.01738,0,0,0.060217,0,0,0,-0.037423,14.099,0,0,-6.1253,0,-14.109,8.9842,0,0.47115,0,0,0,-0.0090496,0,0.003813,-0.021435,-15.126,0,0,0,0.007665,0,-0.041158,-0.078522,0.03625,0.35836,0,0,0,11.055,0,0,0,0,0,0,-0.021152,0,0,0,0,0,0,0,0,0,0,4.1506,0,0.014038,1.0195,11.087,8.9192,0,-0.07243,0,0,0,0,0,0,4.7161,0,-0.050847,0,0,-34.336,-5.312,0.026435,27.793,7.2031,0,0.99557,0,0,0,-0.068702,0,0,-12.217,0.1702,0,0,0,0.03089,0,0.068222,0,0.024785,0,0,0,-0.68193,0,0,0,0,15.043,-0.0054644,0.02512,0,0,0,0,0,0,0,0,0,0,0,-0.034547,0,0,0.099991,0,0,0.068234,0,-0.028792,0,0,0
2,4,6,8,10,12,14,16,18,20,22,24,26,28,30,0,32,34,36,38,40,42,44,46,48,50,52,54,56,58,60,0,62,64,66,68,70,0,0,72,74,76,78,80,0,82,0,84,86,0,0,88,90,92,94,96,98,100,102,104,106,0,0,0,0,108,110,112,114,0,116,118,0,120,122,124,0,126,128,0,0,0,0,130,132,134,136,0,138,0,0,140,142,144,146,148,150,152,154,156,158,0,160,162,164,166,0,0,0,168,0,170,172,0,174,0,0,176,178,0,180,182,184,0,186,0,0,188,0,190,0,0,0,0,192,0,0,194,196,198,200,0,0,0,0,202,204,206,208,210,0,0,212,214,216,218,220,0,222,224,0,226,0,0,0,0,0,0,228,230,0,0,0,0,0,0,232,0,234,0,0,0,236,0,0,0,0,0,0,0,238,0,0,0,0,0,0,0,240,0,242,244,246,0,0,248,0,0,0,0,250,0,252,254,256,258,260,0,0,0,262,0,0,0,264,0,266,0,0,0,0,268,0,0,0,0,0,0,0,270,272,0,0,274,0,0,276,278,280,0,0,282,0,284,286,0,288,290,292,294,0,0,296,298,0,300,302,0,0,304,306,308,310,0,0,312,0,314,316,318,320,322,324,0,0,0,326,0,328,330,332,334,336,0,0,0,0,0,0,0,0,338,340,0,0,342,0,0,0,344,346,0,0,348,0,350,352,0,354,0,0,0,356,0,358,360,362,0,0,0,364,0,366,368,370,372,0,0,0,374,0,0,0,0,0,0,376,0,0,0,0,0,0,0,0,0,0,378,0,380,382,384,386,0,388,0,0,0,0,0,0,390,0,392,0,0,394,396,398,400,402,0,404,0,0,0,406,0,0,408,410,0,0,0,412,0,414,0,416,0,0,0,418,0,0,0,0,420,422,424,0,0,0,0,0,0,0,0,0,0,0,426,0,0,428,0,0,430,0,432,0,0,0
0,0,0,0,0,0,0,0,0,0,0,0,0,0,0,3,0,0,0,0,0,0,0,0,0,0,0,0,0,0,0,1,0,0,0,0,0,2,1,0,0,0,0,0,1,0,4,0,0,4,1,0,0,0,0,0,0,0,0,0,0,1,1,1,2,0,0,0,0,1,0,0,1,0,0,0,5,0,0,1,1,1,3,0,0,0,0,1,0,2,1,0,0,0,0,0,0,0,0,0,0,1,0,0,0,0,1,1,1,0,3,0,0,3,0,1,1,0,0,1,0,0,0,1,0,1,1,0,1,0,2,2,1,1,0,3,3,0,0,0,0,1,5,1,3,0,0,0,0,0,1,1,0,0,0,0,0,1,0,0,1,0,2,1,5,2,2,3,0,0,3,1,4,1,1,1,0,1,0,1,1,4,0,1,1,5,5,5,4,1,0,2,2,1,1,1,1,1,0,5,0,0,0,1,1,0,1,2,1,2,0,1,0,0,0,0,0,4,1,1,0,1,1,1,0,2,0,2,2,3,3,0,1,1,1,1,4,1,1,0,0,3,1,0,1,1,0,0,0,1,1,0,1,0,0,2,0,0,0,0,1,1,0,0,1,0,0,1,1,0,0,0,0,1,1,0,1,0,0,0,0,0,0,1,1,1,0,1,0,0,0,0,0,1,1,1,1,1,1,1,4,0,0,1,1,0,1,1,1,0,0,1,1,0,1,0,0,1,0,1,1,1,0,1,0,0,0,1,1,1,0,1,0,0,0,0,1,1,1,0,1,1,1,1,1,1,0,1,1,1,1,1,1,1,1,1,1,0,1,0,0,0,0,1,0,1,1,1,1,1,1,0,1,0,1,1,0,0,0,0,0,1,0,1,1,1,0,1,1,0,0,1,1,1,0,1,0,1,0,1,1,1,0,1,1,1,1,0,0,0,1,1,1,1,1,1,1,1,1,1,1,0,1,1,0,1,1,0,1,0,1,1,1
