835,230,152,478,83,82,677,265,666,132,890,35,693,548,210,28,14,74,198,100,690,64,178,91,195,834,805,197,656,809,681,196,762,672,846,0,804,0,0,46,0,11,628,43,705,162,564,0,0,689,859,674,0,14,448,720,158,696,0,400,109,0,0,371,1,722,0,0,503,0,686,0,0,0,27,0,160,530,147,58,413,0,263,372,74,256,60,0,7,5,0,560,500,717,0,158,0,99,146,287,870,156,0,130,0,0,885,0,855,0,0,567,376,787,834,0,131,0,804,0,874,0,436,338,0,475,0,91,408,0,0,80,96,353,55,50,50,0,0,0,0,54,859,0,652,14,397,105,263,161,844,0,0,0,0,0,388,0,75,0,471,0,0,0,0,685,0,0,0,58,819,0,0,98,706,0,0,895,543,0,0,0,0,34,7,0,392,397,828,513,160,141,0,790,0,659,642,267,620,0,0,0,0,89,0,0,64,0,0,677,11,0,0,0,107,855,489,339,60,539,0,0,0,0,877,0,0,0,0,0,0,0,0,255,716,0,0,0,215,127,0,0,0,0,0,0,0,185,835,0,799,0,0,104,0,0,44,0,0,50,0,759,871,0,0,370,199,389,0,148,0,0,440,430,0,0,0,0,0,0,509,171,196,523,322,0,0,0,196,626,0,0,0,0,887,0,0,221,381,814,0,0,0,301,884,783,393,0,0,0,0,0,0,709,0,627,0,667,0,0,0,366,591,0,16,0,0,168,0,0,0,59,731,663,893,0,107,0,0,0,134,578,443,0,0,0,745,0,0,0,0,0,816,455,450,0,0,0,0,0,0,820,52,0,0,0,0,0,0,588,0,0,0,0,0,0,0,0,0,465,900,0,0,0,0,0,0,325,780,0,807,670,636,0,0,0,0,0,308,0,0,237,0,0,118,0,0,0,0,140,103,487,0,0,0,0,0,0,0,837,356,421,848,0,55,0,0,0,0,467,0,0,139,0,0,0,0,0,0
-11.528,-0.057765,0.14386,-0.018561,-8.6957,-20.985,-0.17803,0.091879,0.065662,0.25959,-7.1954,-67.218,-0.026181,0.023251,0.010159,-19.077,9.1712,33.828,-0.85696,1.3754,-0.083636,10.36,0.4791,-5.7462,-1.7846,-2.0027,2.6709,0.044016,0.085144,5.9356,-0.10825,0.015542,0.093649,-0.36667,-23.244,0,-31.488,0,0,-41.448,0,-0.87049,0.008713,-19.152,-0.002703,0.53076,-0.019162,0,0,-0.16529,28.228,-0.89751,0,20.935,0.094571,-0.0016048,-0.72371,-0.0037431,0,0.056104,-0.36723,0,0,-0.043176,-8.0499,0.036294,0,0,-0.016957,0,0.16267,0,0,0,-20.213,0,-0.38973,-0.012543,0.027507,12.93,-0.016907,0,-0.0028107,0.11525,3.4537,0.072277,-17.373,0,-17.963,8.7025,0,-0.13514,-0.01424,-0.094713,0,-0.30697,0,-32,-0.47073,0.00079975,8.0943,0.34628,0,-0.022054,0,0,5.5128,0,60.701,0,0,0.031753,-0.15816,0.04969,-11.828,0,0.26334,0,-15.744,0,-71.332,0,-0.0366,0.13294,0,0.0056614,0,-1.7547,-0.010066,0,0,1.4508,14.158,-0.029533,-14.039,-9.4149,-9.523,0,0,0,0,48.386,-0.51769,0,-0.095315,13.499,0.010146,-0.049516,0.011141,-0.30476,30.615,0,0,0,0,0,-0.019712,0,52.457,0,0.015589,0,0,0,0,0.088502,0,0,0,15.18,-8.8096,0,0,25.232,0.020805,0,0,10.707,0.015097,0,0,0,0,0.57034,-3.4348,0,0.22948,-0.015035,0.002496,0.093471,0.12286,-0.28261,0,-0.093362,0,0.02543,-0.24845,-0.010015,-0.068482,0,0,0,0,-32.258,0,0,39.249,0,0,-0.25227,14.458,0,0,0,-0.74513,15.305,-0.0079139,0.044858,-13.856,-0.03503,0,0,0,0,-14.492,0,0,0,0,0,0,0,0,-0.010055,0.019929,0,0,0,-0.04332,0.10179,0,0,0,0,0,0,0,0.07537,-18.044,0,-0.0057375,0,0,-0.11505,0,0,-8.7454,0,0,-5.9325,0,0.076909,3.772,0,0,-0.044027,-0.81715,0.073207,0,-0.57652,0,0,-0.02045,-0.037055,0,0,0,0,0,0,-0.014614,-0.22747,-0.083612,-0.021754,0.098628,0,0,0,0.17775,0.025179,0,0,0,0,-25.369,0,0,-0.042599,-0.058065,8.0084,0,0,0,0.036725,-6.686,-0.02448,-0.082452,0,0,0,0,0,0,0.017058,0,0.012273,0,0.11539,0,0,0,-0.010585,0.0051874,0,52.343,0,0,0.24892,0,0,0,17.266,-0.04834,-0.010281,4.934,0,-0.61379,0,0,0,-0.22116,0.0081483,-0.022896,0,0,0,0.031904,0,0,0,0,0,-64.471,-0.016087,0.0042496,0,0,0,0,0,0,-17.722,0.8747,0,0,0,0,0,0,0.017732,0,0,0,0,0,0,0,0,0,0.061347,-14.934,0,0,0,0,0,0,0.07334,-0.013587,0,-55.644,0.0053148,0.10211,0,0,0,0,0,0.20591,0,0,0.1243,0,0,0.78731,0,0,0,0,0.21394,0.029462,-0.03412,0,0,0,0,0,0,0,-28.804,0.055236,-0.014778,-3.9057,0,-6.3972,0,0,0,0,0.042869,0,0,-0.008955,0,0,0,0,0,0
2,4,6,8,10,12,14,16,18,20,22,24,26,28,30,32,34,36,38,40,42,44,46,48,50,52,54,56,58,60,62,64,66,68,70,0,72,0,0,74,0,76,78,80,82,84,86,0,0,88,90,92,0,94,96,98,100,102,0,104,106,0,0,108,110,112,0,0,114,0,116,0,0,0,118,0,120,122,124,126,128,0,130,132,134,136,138,0,140,142,0,144,146,148,0,150,0,152,154,156,158,160,0,162,0,0,164,0,166,0,0,168,170,172,174,0,176,0,178,0,180,0,182,184,0,186,0,188,190,0,0,192,194,196,198,200,202,0,0,0,0,204,206,0,208,210,212,214,216,218,220,0,0,0,0,0,222,0,224,0,226,0,0,0,0,228,0,0,0,230,232,0,0,234,236,0,0,238,240,0,0,0,0,242,244,0,246,248,250,252,254,256,0,258,0,260,262,264,266,0,0,0,0,268,0,0,270,0,0,272,274,0,0,0,276,278,280,282,284,286,0,0,0,0,288,0,0,0,0,0,0,0,0,290,292,0,0,0,294,296,0,0,0,0,0,0,0,298,300,0,302,0,0,304,0,0,306,0,0,308,0,310,312,0,0,314,316,318,0,320,0,0,322,324,0,0,0,0,0,0,326,328,330,332,334,0,0,0,336,338,0,0,0,0,340,0,0,342,344,346,0,0,0,348,350,352,354,0,0,0,0,0,0,356,0,358,0,360,0,0,0,362,364,0,366,0,0,368,0,0,0,370,372,374,376,0,378,0,0,0,380,382,384,0,0,0,386,0,0,0,0,0,388,390,392,0,0,0,0,0,0,394,396,0,0,0,0,0,0,398,0,0,0,0,0,0,0,0,0,400,402,0,0,0,0,0,0,404,406,0,408,410,412,0,0,0,0,0,414,0,0,416,0,0,418,0,0,0,0,420,422,424,0,0,0,0,0,0,0,426,428,430,432,0,434,0,0,0,0,436,0,0,438,0,0,0,0,0,0
0,0,0,0,0,0,0,0,0,0,0,0,0,0,0,0,0,0,0,0,0,0,0,0,0,0,0,0,0,0,0,0,0,0,0,2,0,4,3,0,1,0,0,0,0,0,0,7,4,0,0,0,5,0,0,0,0,0,1,0,0,1,1,0,0,0,1,1,0,1,0,1,2,1,0,1,0,0,0,0,0,1,0,0,0,0,0,1,0,0,1,0,0,0,2,0,1,0,0,0,0,0,1,0,1,4,0,1,0,1,2,0,0,0,0,2,0,1,0,1,0,1,0,0,1,0,1,0,0,1,2,0,0,0,0,0,0,4,5,1,1,0,0,2,0,0,0,0,0,0,0,1,1,4,1,2,0,1,0,1,0,5,1,6,7,0,2,1,1,0,0,1,1,0,0,2,2,0,0,1,1,1,1,0,0,1,0,0,0,0,0,0,1,0,2,0,0,0,0,1,1,1,1,0,4,1,0,1,1,0,0,1,4,1,0,0,0,0,0,0,1,1,1,1,0,1,1,1,3,2,1,1,1,0,0,1,1,1,0,0,1,1,1,1,1,3,3,0,0,7,0,1,1,0,1,1,0,1,1,0,1,0,0,1,1,0,0,0,3,0,1,1,0,0,1,1,1,1,1,1,0,0,0,0,0,1,1,1,0,0,1,1,1,1,0,1,1,0,0,0,2,1,4,0,0,0,0,1,1,2,1,1,1,0,1,0,1,0,2,2,1,0,0,1,0,1,1,0,1,1,1,0,0,0,0,3,0,1,1,1,0,0,0,1,1,1,0,1,1,1,1,1,0,0,0,1,1,1,1,1,2,0,0,1,1,1,1,1,1,0,1,1,1,1,1,1,1,3,3,0,0,1,1,1,1,1,2,0,0,1,0,0,0,1,1,1,1,1,0,1,1,0,1,1,0,1,1,1,1,0,0,0,1,1,1,1,1,1,1,0,0,0,0,1,0,1,1,1,1,0,1,1,0,1,1,1,1,1,1
