124,202,896,863,815,22,829,872,862,830,892,64,850,359,890,86,0,0,348,184,47,0,187,308,0,885,68,347,399,66,495,874,34,0,0,183,0,0,0,0,0,170,0,0,747,809,392,8,146,8,727,0,55,366,130,0,0,0,0,61,681,99,0,691,0,0,0,0,660,214,79,378,717,0,652,105,15,0,189,0,0,94,83,0,0,0,514,329,0,0,0,551,597,74,195,0,0,17,220,120,801,874,322,0,0,595,75,0,831,0,436,677,0,0,435,130,352,0,0,0,0,31,26,182,0,399,20,493,23,0,0,490,892,0,0,0,0,94,108,0,0,0,0,0,0,0,382,0,0,852,86,781,58,228,572,657,684,187,467,0,68,0,39,0,0,636,0,503,0,831,0,406,56,458,655,0,0,93,0,0,0,0,61,1,276,622,667,810,738,34,804,258,161,0,35,0,0,711,0,0,265,0,829,620,0,606,898,0,466,694,499,0,0,0,0,0,0,1,0,0,0,821,141,14,0,362,0,873,2,0,198,147,271,172,416,0,0,0,0,0,40,0,0,0,0,659,145,0,0,0,185,778,0,0,697,609,585,342,224,0,0,0,0,0,0,0,525,0,0,525,0,0,0,0,324,169,184,2,745,25,806,85,17,0,0,0,0,0,0,442,0,0,0,831,420,0,0,0,0,0,0,0,14,0,0,491,206,0,0,859,93,39,0,632,0,0,180,188,68,0,0,371,132,869,84,195,405,897,0,642,0,0,0,0,0,0,0,854,510,94,31,448,298,0,0,388,787,0,0,0,0,0,754,427,536,115,498,0,0,237,0,0,665,0,0,0,0,449,523,447,0,293,0,0,0,0,25,65,58,549,0,360,0,0,0,296,0,145,563,0,0,783,892,0,0,829,93,0,0,0,0,0,0,0,0,0,206,0,704,409,0,0,656,44,0,0,0,814,0,0,0,0,0,0,0,0,0,0,0,0,0,0,0,387,569,0,0,0,0,0,0,0,0,0,0
-0.041558,-0.086349,2.3929,4.0892,15.253,16.614,2.1732,-3.7411,8.2947,44.597,-11.862,15.999,-17.338,0.067196,-6.4488,5.3308,0,0,-0.06009,-0.27814,51.598,0,0.081193,0.28466,0,9.7231,-1.087,0.060428,-0.14193,6.4602,-0.035899,-22.653,15.408,0,0,0.15149,0,0,0,0,0,0.4605,0,0,-0.071109,3.1967,-0.070881,103.23,-0.38278,71.846,-0.10943,0,-26.258,-0.021371,-0.13187,0,0,0,0,-17.506,-0.018278,-7.2858,0,0.062,0,0,0,0,-0.010497,0.023135,-2.3888,0.037447,-0.15782,0,-0.051474,-0.070978,18.134,0,-0.25256,0,0,-15.725,3.6192,0,0,0,-0.17897,0.035504,0,0,0,-0.031165,-0.013428,3.2211,-0.19238,0,0,48.244,0.013633,-0.49693,-16.292,-54.411,0.18166,0,0,-0.022368,42.175,0,-8.6617,0,-0.10062,-0.22098,0,0,-0.03842,0.106,-0.11669,0,0,0,0,-13.752,38.431,0.2715,0,-0.095141,4.956,-0.026409,42.351,0,0,-0.0041357,14.905,0,0,0,0,3.5285,2.0303,0,0,0,0,0,0,0,0.044813,0,0,1.908,-4.7316,-0.030545,14.405,0.048266,0.049546,-0.09433,-0.082017,0.49011,0.032151,0,11.622,0,-21.651,0,0,0.14445,0,0.0027399,0,-12.218,0,-0.11068,6.024,-0.024816,0.050264,0,0,3.8714,0,0,0,0,-15.131,16.18,0.060084,0.2227,0.045187,-3.3705,-0.0015519,10.397,-28.63,0.10401,-0.27534,0,-38.353,0,0,0.045004,0,0,0.11208,0,-7.7323,0.065639,0,-0.11378,8.1681,0,-0.034433,-0.0001545,-0.035607,0,0,0,0,0,0,-14.615,0,0,0,4.7037,0.050286,10.232,0,0.059654,0,98.466,-32.015,0,-1.1142,-0.091169,0.0054444,-0.41938,-0.003767,0,0,0,0,0,-3.0362,0,0,0,0,0.19609,-0.14164,0,0,0,0.095493,0.02072,0,0,-0.059435,0.024589,0.039136,-0.10672,-0.040811,0,0,0,0,0,0,0,-0.014392,0,0,0.0037615,0,0,0,0,0.083177,-0.4442,-0.12334,-7.2865,-0.016674,-17.811,-17.898,7.3565,40.181,0,0,0,0,0,0,0.039162,0,0,0,-11.714,0.072534,0,0,0,0,0,0,0,10.313,0,0,0.00087356,-0.027566,0,0,0.73534,12.466,-11.539,0,0.085075,0,0,-0.39982,-0.013116,5.9124,0,0,-0.023904,0.28443,4.5855,-1.6664,-0.24932,0.014111,-37.28,0,-0.45264,0,0,0,0,0,0,0,23.594,0.1127,9.6792,7.7608,-0.025197,-0.015337,0,0,-0.022379,0.044184,0,0,0,0,0,0.033427,0.038779,0.26469,0.33673,-0.031494,0,0,0.20218,0,0,0.070838,0,0,0,0,0.016228,-0.012687,0.13264,0,-0.017765,0,0,0,0,-35.558,-16.694,28.499,-0.011479,0,-0.079676,0,0,0,-0.017875,0,0.28775,-0.013823,0,0,0.011153,34.757,0,0,-10.415,8.6841,0,0,0,0,0,0,0,0,0,0.044669,0,0.0011228,0.002236,0,0,0.09421,-0.35167,0,0,0,15.136,0,0,0,0,0,0,0,0,0,0,0,0,0,0,0,0.016525,-0.046311,0,0,0,0,0,0,0,0,0,0
2,4,6,8,10,12,14,16,18,20,22,24,26,28,30,32,0,0,34,36,38,0,40,42,0,44,46,48,50,52,54,56,58,0,0,60,0,0,0,0,0,62,0,0,64,66,68,70,72,74,76,0,78,80,82,0,0,0,0,84,86,88,0,90,0,0,0,0,92,94,96,98,100,0,102,104,106,0,108,0,0,110,112,0,0,0,114,116,0,0,0,118,120,122,124,0,0,126,128,130,132,134,136,0,0,138,140,0,142,0,144,146,0,0,148,150,152,0,0,0,0,154,156,158,0,160,162,164,166,0,0,168,170,0,0,0,0,172,174,0,0,0,0,0,0,0,176,0,0,178,180,182,184,186,188,190,192,194,196,0,198,0,200,0,0,202,0,204,0,206,0,208,210,212,214,0,0,216,0,0,0,0,218,220,222,224,226,228,230,232,234,236,238,0,240,0,0,242,0,0,244,0,246,248,0,250,252,0,254,256,258,0,0,0,0,0,0,260,0,0,0,262,264,266,0,268,0,270,272,0,274,276,278,280,282,0,0,0,0,0,284,0,0,0,0,286,288,0,0,0,290,292,0,0,294,296,298,300,302,0,0,0,0,0,0,0,304,0,0,306,0,0,0,0,308,310,312,314,316,318,320,322,324,0,0,0,0,0,0,326,0,0,0,328,330,0,0,0,0,0,0,0,332,0,0,334,336,0,0,338,340,342,0,344,0,0,346,348,350,0,0,352,354,356,358,360,362,364,0,366,0,0,0,0,0,0,0,368,370,372,374,376,378,0,0,380,382,0,0,0,0,0,384,386,388,390,392,0,0,394,0,0,396,0,0,0,0,398,400,402,0,404,0,0,0,0,406,408,410,412,0,414,0,0,0,416,0,418,420,0,0,422,424,0,0,426,428,0,0,0,0,0,0,0,0,0,430,0,432,434,0,0,436,438,0,0,0,440,0,0,0,0,0,0,0,0,0,0,0,0,0,0,0,442,444,0,0,0,0,0,0,0,0,0,0
0,0,0,0,0,0,0,0,0,0,0,0,0,0,0,0,2,3,0,0,0,5,0,0,3,0,0,0,0,0,0,0,0,3,3,0,1,7,4,7,6,0,3,1,0,0,0,0,0,0,0,2,0,0,0,1,4,1,1,0,0,0,2,0,3,1,5,4,0,0,0,0,0,1,0,0,0,3,0,2,1,0,0,2,1,1,0,0,4,3,3,0,0,0,0,2,3,0,0,0,0,0,0,2,1,0,0,2,0,1,0,0,2,1,0,0,0,1,1,1,1,0,0,0,3,0,0,0,0,1,1,0,0,1,2,3,3,0,0,4,1,2,1,1,1,1,0,1,1,0,0,0,0,0,0,0,0,0,0,1,0,2,0,1,1,0,1,0,1,0,1,0,0,0,0,1,1,0,1,1,4,1,0,0,0,0,0,0,0,0,0,0,0,1,0,1,1,0,1,1,0,1,0,0,1,0,0,1,0,0,0,4,1,1,1,1,1,0,1,1,1,0,0,0,4,0,1,0,0,1,0,0,0,0,0,2,1,1,1,1,0,1,1,1,1,0,0,1,1,1,0,0,1,1,0,0,0,0,0,1,1,1,1,1,1,1,0,1,1,0,1,1,1,1,0,0,0,0,0,0,0,0,0,1,1,2,2,2,2,0,1,1,1,0,0,1,1,1,1,1,1,2,0,2,1,0,0,1,1,0,0,0,1,0,1,1,0,0,0,1,1,0,0,0,0,0,0,0,1,0,1,1,1,1,1,1,1,0,0,0,0,0,0,1,1,0,0,1,1,1,1,1,0,0,0,0,0,1,1,0,1,1,0,1,1,1,1,0,0,0,1,0,1,1,1,1,0,0,0,0,1,0,1,1,1,0,1,0,0,1,1,0,0,1,1,0,0,1,1,1,1,1,1,2,1,1,0,1,0,0,1,1,0,0,1,1,1,0,1,1,1,1,1,1,1,1,1,1,1,1,1,1,1,0,0,1,1,1,1,1,1,1,1,1,1
